2018-01-18 01:24:01,ETH,EUR,Kraken,GDAX,1.141084,7.35000,6.75000,1.63696,0.00164
2018-01-18 01:24:32,ETH,EUR,Kraken,GDAX,1.141318,7.19000,6.75000,1.45608,0.00146
2018-01-18 01:26:29,ETH,EUR,Kraken,GDAX,1.141409,7.12000,6.75000,1.37683,0.00138
2018-01-18 02:00:21,ETH,EUR,Kraken,GDAX,1.139601,12.79000,6.75000,7.82550,0.00783
2018-01-18 02:03:53,ETH,EUR,Kraken,GDAX,1.149465,10.07000,6.75000,4.82511,0.00483
2018-01-18 02:04:24,ETH,EUR,Kraken,GDAX,1.149465,7.25000,6.75000,1.58362,0.00158
2018-01-18 02:11:30,ETH,EUR,Kraken,GDAX,1.141566,7.85000,6.75000,2.21129,0.00221
2018-01-18 02:12:01,ETH,EUR,Kraken,GDAX,1.139601,6.94000,6.75000,1.15883,0.00116
2018-01-18 02:13:02,ETH,EUR,Kraken,GDAX,1.140355,6.33000,6.75000,0.46845,0.00047
2018-01-18 02:23:40,ETH,EUR,Kraken,GDAX,1.000000,6.84000,6.45880,0.38120,0.00038
2018-01-18 02:25:42,ETH,EUR,Kraken,GDAX,1.000000,11.90000,6.47700,5.42300,0.00542
2018-01-18 02:26:13,ETH,EUR,Kraken,GDAX,1.000000,10.00000,6.47440,3.52560,0.00353
2018-01-18 02:31:48,ETH,EUR,Kraken,GDAX,1.126113,8.01000,6.75000,2.27017,0.00227
2018-01-18 02:32:18,ETH,EUR,Kraken,GDAX,1.124214,9.51000,6.75000,3.94128,0.00394
